#timestamp_start,timestamp_end,correction_x,correction_y
1464336285.0,1464336313.0,-0.7813246234676007,0.06004967425569177
1464336324.0,1464336353.0,-0.8548824781085814,0.08368513222416812
1464336364.0,1464336393.0,-0.9293714448336252,0.1076197732049037
1464336404.0,1464336432.0,-1.002929299474606,0.13125523117338003
1464336444.0,1464336471.0,-1.0764871541155867,0.15489068914185639
1464336483.0,1464336512.0,-1.1509761208406304,0.17882533012259194
1464336522.0,1464336552.0,-1.2245339754816111,0.20246078809106832
1464336563.0,1464336591.0,-1.299022942206655,0.22639542907180388
1464336603.0,1464336630.0,-1.3725807968476358,0.2500308870402802
1464336643.0,1464336671.0,-1.4480008756567426,0.27426471103327493
1464336681.0,1464336710.0,-1.5196965061295973,0.2973018029772329
1464336723.0,1464336753.0,-1.5988410332749563,0.32273235901926445
1464336763.0,1464336792.0,-1.672398887915937,0.3463678169877408
1464336804.0,1464336831.0,-1.5758507219298246,0.36191261403508773
1464336843.0,1464336871.0,-1.4783714438596491,0.37715822807017546
1464336882.0,1464336911.0,-1.3808921657894737,0.3924038421052632
1464336922.0,1464336951.0,-1.2821789728070176,0.4078424385964912
1464336962.0,1464336990.0,-1.184699694736842,0.42308805263157895
1464337002.0,1464337029.0,-1.0872204166666666,0.4383336666666667
1464337041.0,1464337070.0,-0.9885072236842105,0.45377226315789476
1464337080.0,1464337110.0,-0.8910279456140351,0.4690178771929825
1464337121.0,1464337149.0,-0.7923147526315789,0.4844564736842105
1464337160.0,1464337190.0,-0.6936015596491228,0.49989507017543866
1464337200.0,1464337229.0,-0.5961222815789473,0.5151406842105264
1464337239.0,1464337268.0,-0.49987691842105253,0.5301933157894737
1464337522.0,1464337550.0,1.5228647982608696,1.3061377408695651
1464337561.0,1464337589.0,1.4277147686956522,1.2406369356521738
1464337601.0,1464337630.0,1.3289051226086956,1.1726168686956522
1464337641.0,1464337670.0,1.2313153486956523,1.105436555652174
1464337681.0,1464337710.0,1.1337255747826087,1.0382562426086956
1464337721.0,1464337749.0,1.037355673043478,0.971915683478261
1464337761.0,1464337790.0,0.9385460269565218,0.9038956165217392
1464337800.0,1464337829.0,0.8433959973913044,0.8383948113043478
1464337841.0,1464337870.0,0.7433664791304349,0.7695349904347827
1464337880.0,1464337909.0,0.6482164495652174,0.7040341852173914
1464337921.0,1464337949.0,0.5494068034782609,0.6360141182608696
1464337960.0,1464337988.0,0.4542567739130434,0.5705133130434783
1464338001.0,1464338029.0,0.3579086052173913,0.5074755339130435
1464338041.0,1464338068.0,0.4069520113043478,0.6711056234782609
1464338081.0,1464338109.0,0.45723702260869564,0.8388782469565217
1464338121.0,1464338150.0,0.5075220339130435,1.0066508704347825
1464338161.0,1464338189.0,0.55656544,1.17028096
1464338201.0,1464338228.0,0.6056088460869564,1.3339110495652173
1464338240.0,1464338269.0,0.6552730547826087,1.4996124060869565
1464338281.0,1464338309.0,0.7055580660869565,1.6673850295652175
1464338320.0,1464338349.0,0.7546014721739129,1.8310151191304347
1464338361.0,1464338389.0,0.8048864834782608,1.9987877426086957
1464338400.0,1464338430.0,0.854550692173913,2.164489099130435
1464338440.0,1464338469.0,0.9035940982608694,2.328119188695652
1464338479.0,1464338508.0,0.9520167017391303,2.4896780113043477
1464338769.0,1464338798.0,1.8089202173913044,2.669187391304348
1464338810.0,1464338839.0,1.8268710869565217,2.543976956521739
1464338851.0,1464338880.0,1.844821956521739,2.4187665217391308
1464338890.0,1464338919.0,1.8618971739130434,2.2996639130434784
1464338931.0,1464338960.0,1.8798480434782607,2.1744534782608698
1464338970.0,1464338999.0,1.8969232608695652,2.0553508695652174
1464339011.0,1464339039.0,1.9146552173913043,1.9316673913043478
1464339050.0,1464339078.0,1.9317304347826085,1.8125647826086957
1464339090.0,1464339119.0,1.9494623913043476,1.6888813043478261
1464339129.0,1464339158.0,1.966537608695652,1.5697786956521738
1464339170.0,1464339199.0,1.9844884782608694,1.4445682608695651
1464339209.0,1464339238.0,2.0015636956521736,1.325465652173913
1464339248.0,1464339277.0,2.0177326782608693,1.2096222695652172
1464339289.0,1464339317.0,1.9620596173913043,1.349936104347826
1464339328.0,1464339358.0,1.9070738782608694,1.4885176695652174
1464339369.0,1464339398.0,1.8514008173913044,1.628831504347826
1464339409.0,1464339438.0,1.7964150782608694,1.7674130695652175
1464339449.0,1464339479.0,1.7407420173913044,1.9077269043478262
1464339489.0,1464339518.0,1.6864435999999998,2.0445762
1464339530.0,1464339557.0,1.6314578608695651,2.1831577652173912
1464339569.0,1464339598.0,1.5764721217391304,2.3217393304347826
1464339610.0,1464339637.0,1.5214863826086957,2.460320895652174
1464339649.0,1464339678.0,1.4665006434782608,2.5989024608695654
1464339688.0,1464339717.0,1.412889547826087,2.7340194869565217
1464339728.0,1464339757.0,1.357903808695652,2.872601052173913
1464339948.0,1464339977.0,4.7583362521891415,3.829189360770578
1464339987.0,1464340016.0,4.407267950963222,3.7769833187390542
1464340028.0,1464340056.0,4.042697022767075,3.7227693520140104
1464340067.0,1464340096.0,3.687127845884413,3.6698940017513135
1464340108.0,1464340136.0,3.3225569176882663,3.6156800350262697
1464340147.0,1464340176.0,2.966987740805604,3.5628046847635724
1464340187.0,1464340216.0,2.6069176882661993,3.5092600262697022
1464340227.0,1464340255.0,2.2513485113835374,3.456384676007005
1464340267.0,1464340294.0,1.895779334500876,3.403509325744308
1464340306.0,1464340335.0,1.5357092819614708,3.349964667250438
1464340345.0,1464340375.0,1.1801401050788094,3.2970893169877407
1464340385.0,1464340414.0,0.8245709281961471,3.244213966725044
1464340426.0,1464340453.0,0.4645008756567428,3.1906693082311732
1464340465.0,1464340494.0,0.6509546830985915,3.2608510387323943
1464340504.0,1464340533.0,0.8394922183098592,3.3308052288732393
1464340544.0,1464340573.0,1.0328640492957746,3.402553116197183
1464340584.0,1464340612.0,1.2238187323943661,3.4734041549295775
1464340624.0,1464340653.0,1.4196077112676058,3.5460488908450705
1464340663.0,1464340692.0,1.6081452464788732,3.6160030809859154
1464340702.0,1464340732.0,1.7990999295774648,3.68685411971831
1464340743.0,1464340771.0,1.9924717605633804,3.7586020070422537
1464340783.0,1464340812.0,2.18826073943662,3.8312467429577466
1464340822.0,1464340851.0,2.3767982746478875,3.9012009330985915
1464340861.0,1464340890.0,2.565335809859155,3.971155123239437
1464340902.0,1464340930.0,2.7611247887323946,4.04379985915493
1464341247.0,1464341287.0,2.6371742262895177,3.935138968386023
1464341300.0,1464341339.0,2.430071509983361,3.8343870133111477
1464341352.0,1464341391.0,2.224941200499168,3.7345946006655573
1464341405.0,1464341444.0,2.015866077371048,3.6328831031613977
1464341457.0,1464341496.0,1.8107357678868554,3.533090690515807
1464341510.0,1464341549.0,1.6016606447587356,3.4313791930116473
1464341562.0,1464341601.0,1.3965303352745424,3.331586780366057
1464341614.0,1464341654.0,1.189427618968386,3.2308348252911814
1464341667.0,1464341706.0,0.9823249026622296,3.130082870216306
1464341719.0,1464341759.0,0.7696724195121952,3.0311233008130083
1464341772.0,1464341811.0,0.27120694390243916,3.0244715934959348
1464341824.0,1464341864.0,-0.2272585317073169,3.0178198861788617
1464341877.0,1464341916.0,-0.7257240073170731,3.0111681788617886
1464341929.0,1464341968.0,-1.2194421926829269,3.0045798211382113
1464341982.0,1464342021.0,-1.7226549585365851,2.9978647642276424
1464342034.0,1464342073.0,-2.216373143902439,2.991276406504065
1464342086.0,1464342126.0,-2.7148386195121947,2.9846246991869916
1464342139.0,1464342178.0,-3.213304095121951,2.9779729918699185
1464342191.0,1464342231.0,-3.7117695707317075,2.9713212845528454
1464342677.0,1464342716.0,0.7554000101010101,4.771207121212121
1464342729.0,1464342768.0,0.6564504882154882,4.712594191919192
1464342781.0,1464342821.0,0.5565495286195286,4.653417676767677
1464342834.0,1464342873.0,0.456648569023569,4.594241161616162
1464342886.0,1464342926.0,0.3567476094276095,4.5350646464646465
1464342939.0,1464342977.0,0.25779808754208755,4.476451717171717
1464342993.0,1464343029.0,0.15694569023569027,4.416711616161616
1464343044.0,1464343082.0,0.0579961683501683,4.358098686868686
1464343096.0,1464343134.0,-0.040953353535353454,4.2994857575757575
1464343149.0,1464343186.0,-0.14083444816053514,4.242717391304348
1464343201.0,1464343239.0,-0.24004013377926423,4.267826086956521
1464343254.0,1464343291.0,-0.3392458193979933,4.292934782608696
1464343306.0,1464343344.0,-0.4384515050167224,4.318043478260869
1464343358.0,1464343396.0,-0.5367123745819398,4.34291304347826
1464343411.0,1464343449.0,-0.6368628762541806,4.368260869565217
1464343463.0,1464343501.0,-0.735123745819398,4.393130434782608
1464343516.0,1464343554.0,-0.8352742474916388,4.4184782608695645
1464343568.0,1464343606.0,-0.9335351170568561,4.443347826086956
1464343621.0,1464343658.0,-1.032740802675585,4.46845652173913
1464344429.0,1464344469.0,-1.685601404399323,2.213546192893401
1464344482.0,1464344521.0,-1.9117902368866329,2.17293730964467
1464344534.0,1464344573.0,-2.1358248900169206,2.1327151776649744
1464344587.0,1464344626.0,-2.3641679018612525,2.091719543147208
1464344639.0,1464344678.0,-2.5882025549915397,2.051497411167513
1464344692.0,1464344731.0,-2.8165455668358717,2.0105017766497464
1464344744.0,1464344782.0,-3.038426040609137,1.9706663959390864
1464344795.0,1464344834.0,-3.2603065143824024,1.9308310152284265
1464344847.0,1464344887.0,-3.486495346869712,1.8902221319796955
1464344900.0,1464344939.0,-3.7089881779661016,1.8507253220338984
1464344952.0,1464344992.0,-3.5470968644067797,1.9268841355932205
1464345005.0,1464345043.0,-3.3867473728813557,2.0023176271186442
1464345057.0,1464345095.0,-3.226397881355932,2.077751118644068
1464345110.0,1464345148.0,-3.062964745762712,2.1546352542372884
1464345162.0,1464345200.0,-2.902615254237288,2.2300687457627117
1464345215.0,1464345252.0,-2.7407239406779658,2.306227559322034
1464345267.0,1464345305.0,-2.5788326271186444,2.382386372881356
1464345318.0,1464345356.0,-2.421566779661017,2.456369220338983
1464345370.0,1464345408.0,-2.261217288135593,2.531802711864407
1464345652.0,1464345691.0,-2.465227889072848,2.6674993625827814
1464345706.0,1464345743.0,-2.749224528145695,2.680214975165563
1464345758.0,1464345797.0,-3.033221167218543,2.6929305877483443
1464345812.0,1464345851.0,-3.3225762334437086,2.7058861175496687
1464345864.0,1464345904.0,-3.6038936589403976,2.718481771523179
1464345917.0,1464345956.0,-3.8852110844370857,2.7310774254966885
1464345969.0,1464346007.0,-4.161170082781457,2.7434331622516557
1464346023.0,1464346061.0,-4.450525149006622,2.75638869205298
1464346076.0,1464346115.0,-4.737201001655629,2.7692242632450332
1464346128.0,1464346167.0,-5.013498424092409,2.783226113861386
1464346180.0,1464346220.0,-5.04903295379538,2.9560680693069306
1464346233.0,1464346272.0,-5.08456748349835,3.128910024752475
1464346287.0,1464346325.0,-5.120778861386139,3.3050442079207922
1464346341.0,1464346379.0,-5.157328663366337,3.482824504950495
1464346393.0,1464346431.0,-5.192524768976898,3.6540203465346535
1464346444.0,1464346484.0,-5.227720874587459,3.8252161881188123
1464346497.0,1464346536.0,-5.263255404290429,3.9980581435643563
1464346551.0,1464346590.0,-5.299805206270627,4.17583844059406
1464346604.0,1464346642.0,-5.335339735973597,4.3486803960396045
1464350869.0,1464350898.0,0.5543079319371726,0.6176229363001745
1464350910.0,1464350937.0,0.12522520942408355,0.610747054973822
1464350949.0,1464350978.0,-0.30385751308900577,0.6038711736474695
1464350988.0,1464351018.0,-0.7275767015706811,0.5970812408376963
1464351028.0,1464351057.0,-1.1512958900523564,0.5902913080279232
1464351069.0,1464351096.0,-1.5803786125654455,0.5834154267015706
1464351108.0,1464351137.0,-2.009461335078534,0.5765395453752181
1464351147.0,1464351176.0,-2.427816989528796,0.5698355610820245
1464351187.0,1464351216.0,-2.8568997120418858,0.562959679755672
1464351227.0,1464351255.0,-3.2806189005235606,0.5561697469458988
1464351267.0,1464351294.0,-3.7043380890052364,0.5493798141361257
1464351306.0,1464351335.0,-4.1334208115183255,0.5425039328097732
1464351345.0,1464351375.0,-4.55714,0.535714
1464351386.0,1464351414.0,-4.518447368421053,0.610805649122807
1464351426.0,1464351453.0,-4.480238394736842,0.684958652631579
1464351465.0,1464351494.0,-4.441545763157895,0.7600503017543859
1464351504.0,1464351533.0,-4.403820447368421,0.8332646596491229
1464351545.0,1464351573.0,-4.3646441578947375,0.909294954385965
1464351584.0,1464351612.0,-4.326918842105264,0.9825093122807017
1464351624.0,1464351653.0,-4.287742552631579,1.058539607017544
1464351663.0,1464351692.0,-4.250017236842106,1.1317539649122805
1464351704.0,1464351731.0,-4.211324605263158,1.2068456140350876
1464351743.0,1464351771.0,-4.1731156315789475,1.2809986175438595
1464351783.0,1464351812.0,-4.133939342105263,1.3570289122807018
1464351822.0,1464351851.0,-4.096214026315789,1.4302432701754384
1464352142.0,1464352170.0,-0.0572492682926829,1.8347519512195123
1464352182.0,1464352211.0,0.03466795121951227,1.797768536585366
1464352222.0,1464352250.0,0.12431560975609757,1.7616982926829268
1464352262.0,1464352291.0,0.21623282926829268,1.7247148780487804
1464352303.0,1464352330.0,0.30701526829268294,1.688188048780488
1464352343.0,1464352371.0,0.39893248780487817,1.6512046341463416
1464352383.0,1464352410.0,0.4885801463414636,1.6151343902439024
1464352422.0,1464352451.0,0.5793625853658537,1.5786075609756098
1464352461.0,1464352491.0,0.6690102439024392,1.5425373170731709
1464352502.0,1464352531.0,0.7609274634146341,1.5055539024390243
1464352543.0,1464352571.0,0.8528446829268292,1.4685704878048782
1464352582.0,1464352611.0,0.9424923414634148,1.432500243902439
1464352623.0,1464352651.0,1.031449820244328,1.4011948167539268
1464352663.0,1464352692.0,1.003497540139616,1.5941698952879582
1464352702.0,1464352731.0,0.9765805296684119,1.7799977486910996
1464352743.0,1464352770.0,0.9489733394415358,1.9705904188481675
1464352782.0,1464352810.0,0.9217112390924956,2.1588006806282722
1464352821.0,1464352850.0,0.8944491387434556,2.347010942408377
1464352862.0,1464352890.0,0.8664968586387435,2.5399860209424086
1464352901.0,1464352931.0,0.8388896684118674,2.7305786910994767
1464352942.0,1464352970.0,0.8112824781849913,2.9211713612565444
1464352982.0,1464353011.0,0.7833301980802793,3.114146439790576
1464353022.0,1464353050.0,0.7560680977312391,3.3023567015706807
1464353062.0,1464353091.0,0.728115817626527,3.4953317801047117
1464353102.0,1464353130.0,0.7008537172774869,3.6835420418848166
